<?xml version="1.0" encoding="iso-8859-1"?>
<!-- Generator: Adobe Illustrator 22.0.1, SVG Export Plug-In . SVG Version: 6.00 Build 0)  -->
<svg version="1.1" id="Calque_1" xmlns="http://www.w3.org/2000/svg" xmlns:xlink="http://www.w3.org/1999/xlink" x="0px" y="0px"
	 viewBox="0 0 56.693 56.693" style="enable-background:new 0 0 56.693 56.693;" xml:space="preserve">
<path fill="#FFF" d="M28.346,3.708c-1.694,0-2.504,0.847-2.431,2.541l-0.11,19.556l-19.556,0.11c-1.694-0.074-2.541,0.737-2.541,2.431
	c0,1.694,0.847,2.504,2.541,2.431l19.556,0.11l0.11,19.556c-0.074,1.694,0.737,2.541,2.431,2.541c1.694,0,2.504-0.847,2.431-2.541
	l0.11-19.556l19.556-0.11c1.694,0.074,2.541-0.737,2.541-2.431c0-1.694-0.847-2.504-2.541-2.431l-19.556-0.11l-0.11-19.556
	C30.851,4.555,30.041,3.708,28.346,3.708z"/>
</svg>
