<?xml version="1.0" standalone="no"?>
<!DOCTYPE svg PUBLIC "-//W3C//DTD SVG 20010904//EN"
 "http://www.w3.org/TR/2001/REC-SVG-20010904/DTD/svg10.dtd">
<svg version="1.0" xmlns="http://www.w3.org/2000/svg"
 width="340.000000pt" height="340.000000pt" viewBox="0 0 340.000000 340.000000"
 preserveAspectRatio="xMidYMid meet">
<metadata>
Created by potrace 1.11, written by Peter Selinger 2001-2013
</metadata>
<g transform="translate(0.000000,340.000000) scale(0.100000,-0.100000)"
fill="#000000" stroke="none">
<path d="M2315 3299 c-249 -24 -485 -107 -797 -281 -140 -78 -442 -281 -488
-328 -3 -3 -30 -25 -60 -50 -87 -72 -147 -127 -263 -245 -546 -549 -801 -1154
-667 -1576 62 -194 196 -364 383 -486 164 -107 357 -178 592 -217 168 -28 454
-28 635 -1 353 53 692 212 990 463 374 314 654 794 726 1246 3 21 8 48 10 60
7 35 18 207 18 276 -1 235 -49 461 -137 635 -94 188 -252 343 -432 425 -142
65 -340 95 -510 79z m-339 -294 c190 -95 360 -474 450 -1005 2 -14 6 -34 9
-45 2 -11 7 -42 10 -70 4 -27 8 -57 10 -65 2 -8 7 -37 10 -65 4 -27 8 -61 11
-75 21 -119 24 -419 5 -495 -15 -63 -32 -85 -66 -88 l-27 -2 -4 165 c-4 218
-11 292 -40 475 -13 79 -48 225 -71 294 -31 95 -101 246 -141 303 -44 64 -147
172 -240 254 -80 70 -226 174 -243 174 -27 0 23 114 74 170 50 54 72 71 114
86 55 19 83 17 139 -11z m-112 -545 c176 -196 252 -338 342 -640 14 -47 27
-92 29 -100 2 -8 17 -71 33 -140 28 -116 36 -152 46 -205 21 -113 37 -197 42
-229 5 -37 5 -38 -15 -24 -50 35 -148 137 -211 218 -19 25 -38 50 -43 55 -115
144 -334 518 -397 677 -57 144 -92 315 -93 452 0 56 12 167 20 179 6 10 117
-100 247 -243z m-1370 -565 c384 -77 915 -280 1271 -484 302 -174 559 -374
596 -464 15 -35 2 -47 -51 -47 -66 0 -115 22 -320 145 -186 110 -281 166 -380
223 -191 109 -328 186 -395 222 -44 24 -102 55 -130 70 -111 61 -577 290 -590
290 -2 0 -36 16 -77 35 -40 19 -67 35 -59 35 7 0 68 -11 135 -25z m2020 -1009
c11 -56 28 -62 71 -25 35 31 38 32 49 13 25 -43 26 -68 3 -113 -52 -104 -217
-117 -257 -21 -25 60 14 135 84 166 43 18 43 18 50 -20z"/>
</g>
</svg>
