{
    "key": "group_595a304acd409",
    "title": "Notices",
    "fields": [
        {
            "key": "field_595a304ad789d",
            "label": "Titre du document",
            "name": "titre_du_document",
            "type": "text",
            "instructions": "",
            "required": 1,
            "conditional_logic": 0,
            "wrapper": {
                "width": "",
                "class": "",
                "id": ""
            },
            "default_value": "",
            "placeholder": "",
            "prepend": "",
            "append": "",
            "maxlength": ""
        },
        {
            "key": "field_595a304ad7915",
            "label": "Typologie",
            "name": "typologie",
            "type": "taxonomy",
            "instructions": "",
            "required": 0,
            "conditional_logic": 0,
            "wrapper": {
                "width": "",
                "class": "",
                "id": ""
            },
            "taxonomy": "category",
            "field_type": "checkbox",
            "allow_null": 0,
            "load_save_terms": 0,
            "return_format": "id",
            "multiple": 0,
            "add_term": 1,
            "load_terms": 0,
            "save_terms": 0
        },
        {
            "key": "field_595a304ad7989",
            "label": "Résumé",
            "name": "resume",
            "type": "textarea",
            "instructions": "",
            "required": 0,
            "conditional_logic": 0,
            "wrapper": {
                "width": "",
                "class": "",
                "id": ""
            },
            "default_value": "",
            "placeholder": "",
            "maxlength": "",
            "rows": "",
            "new_lines": "br"
        },
        {
            "key": "field_595a304ad7a03",
            "label": "Fichier de la notice",
            "name": "fichier_notice",
            "type": "file",
            "instructions": "",
            "required": 0,
            "conditional_logic": 0,
            "wrapper": {
                "width": "",
                "class": "",
                "id": ""
            },
            "library": "all",
            "return_format": "array",
            "min_size": 0,
            "max_size": 0,
            "mime_types": ""
        }
    ],
    "location": [
        [
            {
                "param": "post_type",
                "operator": "==",
                "value": "notices"
            }
        ]
    ],
    "menu_order": 0,
    "position": "normal",
    "style": "seamless",
    "label_placement": "top",
    "instruction_placement": "label",
    "hide_on_screen": "",
    "active": 1,
    "description": "",
    "modified": 1518172939
}