{
    "key": "group_595a3048532a2",
    "title": "Personnalisation",
    "fields": [
        {
            "key": "field_595a30485c5b2",
            "label": "Image de fond",
            "name": "image_de_fond",
            "type": "image",
            "instructions": "",
            "required": 0,
            "conditional_logic": 0,
            "wrapper": {
                "width": "",
                "class": "",
                "id": ""
            },
            "return_format": "array",
            "preview_size": "thumbnail",
            "library": "all",
            "min_width": "",
            "min_height": "",
            "min_size": "",
            "max_width": "",
            "max_height": "",
            "max_size": "",
            "mime_types": ""
        }
    ],
    "location": [
        [
            {
                "param": "post_type",
                "operator": "==",
                "value": "post"
            }
        ],
        [
            {
                "param": "post_type",
                "operator": "==",
                "value": "page"
            }
        ],
        [
            {
                "param": "post_type",
                "operator": "==",
                "value": "notices"
            }
        ],
        [
            {
                "param": "post_type",
                "operator": "==",
                "value": "photos"
            }
        ],
        [
            {
                "param": "post_type",
                "operator": "==",
                "value": "videos"
            }
        ],
        [
            {
                "param": "post_type",
                "operator": "==",
                "value": "faqs"
            }
        ]
    ],
    "menu_order": 0,
    "position": "side",
    "style": "default",
    "label_placement": "top",
    "instruction_placement": "label",
    "hide_on_screen": [
        "excerpt",
        "discussion",
        "comments",
        "author",
        "format",
        "featured_image",
        "tags",
        "send-trackbacks"
    ],
    "active": 1,
    "description": "",
    "modified": 1518172940
}