{
    "key": "group_5a1828141a1a9",
    "title": "Rendre publique",
    "fields": [
        {
            "key": "field_5a18281424a54",
            "label": "Visible pour tous",
            "name": "visible_pour_tous",
            "type": "radio",
            "instructions": "",
            "required": 0,
            "conditional_logic": 0,
            "wrapper": {
                "width": "",
                "class": "",
                "id": ""
            },
            "choices": {
                "oui": "OUI",
                "non": "NON"
            },
            "allow_null": 0,
            "other_choice": 0,
            "save_other_choice": 0,
            "default_value": "non",
            "layout": "horizontal",
            "return_format": "value"
        }
    ],
    "location": [
        [
            {
                "param": "post_type",
                "operator": "==",
                "value": "notices"
            },
            {
                "param": "current_user_role",
                "operator": "==",
                "value": "administrator"
            }
        ],
        [
            {
                "param": "post_type",
                "operator": "==",
                "value": "photos"
            },
            {
                "param": "current_user_role",
                "operator": "==",
                "value": "administrator"
            }
        ],
        [
            {
                "param": "post_type",
                "operator": "==",
                "value": "videos"
            },
            {
                "param": "current_user_role",
                "operator": "==",
                "value": "administrator"
            }
        ],
        [
            {
                "param": "post_type",
                "operator": "==",
                "value": "faqs"
            },
            {
                "param": "current_user_role",
                "operator": "==",
                "value": "administrator"
            }
        ]
    ],
    "menu_order": 0,
    "position": "side",
    "style": "default",
    "label_placement": "top",
    "instruction_placement": "label",
    "hide_on_screen": "",
    "active": 1,
    "description": "",
    "modified": 1518172944
}